{
  "users": [
    {
      "id": 1,
      "email": "shadrin.igor@gmail.com",
      "password": "123456789",
      "name": "Игорь"
    }
  ],
  "bill": {
    "value": 85000,
    "currency": "RUB"
  },
  "categories": [
    {
      "name": "Дом",
      "capacity": 10000,
      "id": 1
    },
    {
      "name": "Еда",
      "capacity": 15000,
      "id": 2
    },
    {
      "name": "Машина",
      "capacity": 35000,
      "id": 3
    }
  ],
  "events": [
    {
      "id": 1,
      "type": "income",
      "category": 2,
      "amount": 50,
      "date": "10.12.2017 18:00:10",
      "description": "Подарили в гостях"
    },
    {
      "type": "income",
      "amount": 150,
      "category": 5,
      "date": "15.12.2017 14:30:50",
      "description": "dfgsdfg",
      "id": 2
    },
    {
      "type": "income",
      "amount": 2000,
      "category": 1,
      "date": "15.12.2017 14:37:03",
      "description": "dfgsdf",
      "id": 3
    },
    {
      "id": 4,
      "type": "outcome",
      "category": 1,
      "amount": 5000,
      "date": "10.12.2017 18:00:10",
      "description": "Подарили в гостях"
    },
    {
      "type": "outcome",
      "amount": 3500,
      "category": 5,
      "date": "15.12.2017 14:30:50",
      "description": "dfgsdfg",
      "id": 5
    },
    {
      "type": "outcome",
      "amount": 2000,
      "category": 1,
      "date": "15.12.2017 14:37:03",
      "description": "dfgsdf",
      "id": 6
    },
    {
      "id": 7,
      "type": "outcome",
      "category": 2,
      "amount": 500,
      "date": "10.12.2017 18:00:10",
      "description": "Подарили в гостях"
    },
    {
      "type": "outcome",
      "amount": 1500,
      "category": 2,
      "date": "15.12.2017 14:30:50",
      "description": "dfgsdfg",
      "id": 8
    },
    {
      "type": "outcome",
      "amount": 4000,
      "category": 2,
      "date": "15.12.2017 14:37:03",
      "description": "dfgsdf",
      "id": 9
    },
    {
      "id": 10,
      "type": "outcome",
      "category": 3,
      "amount": 5000,
      "date": "10.12.2017 18:00:10",
      "description": "Подарили в гостях"
    },
    {
      "type": "outcome",
      "amount": 1500,
      "category": 3,
      "date": "15.12.2017 14:30:50",
      "description": "dfgsdfg",
      "id": 11
    },
    {
      "type": "outcome",
      "amount": 2000,
      "category": 3,
      "date": "15.12.2017 14:37:03",
      "description": "dfgsdf",
      "id": 12
    },
    {
      "type": "outcome",
      "amount": 10000,
      "category": 1,
      "date": "15.12.2017 15:33:36",
      "description": "ьить",
      "id": 13
    },
    {
      "type": "outcome",
      "amount": 5000,
      "category": 1,
      "date": "15.12.2017 15:33:42",
      "description": " 4545",
      "id": 14
    }
  ]
}
